<?xml version="1.0" encoding="UTF-8" standalone="no"?>
<svg width="72px" height="72px" viewBox="0 0 72 72" version="1.1" xmlns="http://www.w3.org/2000/svg" xmlns:xlink="http://www.w3.org/1999/xlink">
    <!-- Generator: Sketch 3.8.2 (29753) - http://www.bohemiancoding.com/sketch -->
    <title>72 - hdpi</title>
    <desc>Created with Sketch.</desc>
    <defs></defs>
    <g id="Page-1" stroke="none" stroke-width="1" fill="none" fill-rule="evenodd">
        <g id="72---hdpi" fill="#777777">
            <path d="M52.1267019,60.0576984 C48.3930572,60.0576984 45.3579498,57.0218751 45.3579498,53.2882304 C45.3579498,49.5540131 48.3930572,46.5189056 52.1267019,46.5189056 C55.8609192,46.5189056 58.8961699,49.5540131 58.8961699,53.2882304 C58.8961699,57.0218751 55.8609192,60.0576984 52.1267019,60.0576984 M19.8732981,42.3384205 C16.1390808,42.3384205 13.1039733,39.3033131 13.1039733,35.5690957 C13.1039733,31.8353079 16.1390808,28.8002004 19.8732981,28.8002004 C23.6069428,28.8002004 26.6420502,31.8353079 26.6420502,35.5690957 C26.6420502,39.3033131 23.5957753,42.3384205 19.8732981,42.3384205 M52.1267019,11.1039733 C55.8609192,11.1039733 58.8961699,14.1390808 58.8961699,17.8732981 C58.8961699,21.6069428 55.8609192,24.6420502 52.1267019,24.6420502 C48.3930572,24.6420502 45.3579498,21.6069428 45.3579498,17.8732981 C45.3579498,14.1390808 48.4042247,11.1039733 52.1267019,11.1039733 M44.315513,47.2861654 L29.1621673,38.8222545 C29.5172344,37.8027252 29.7119485,36.7031627 29.7119485,35.5690957 C29.7119485,34.4237181 29.5172344,33.3358957 29.1509999,32.3051991 L44.2926054,23.8518829 C46.0905619,26.2001933 48.9316711,27.7236887 52.1155345,27.7236887 C57.544338,27.7236887 61.9770924,23.3021016 61.9770924,17.861558 C61.9770924,12.4210144 57.5560781,8 52.1155345,8 C46.6749908,8 42.2539765,12.4210144 42.2539765,17.861558 C42.2539765,19.0069356 42.4486907,20.1064981 42.8149252,21.1260273 L27.6846302,29.5787709 C25.8865305,27.2191498 23.0459941,25.7075377 19.861558,25.7075377 C14.4327545,25.7075377 10,30.1285521 10,35.5690957 C10,41.0096393 14.4327545,45.4310832 19.8732981,45.4310832 C23.0571615,45.4310832 25.897698,43.907731 27.7075377,41.54811 L42.8495728,50.0125936 C42.4827656,51.0434335 42.276884,52.1540202 42.276884,53.2993979 C42.276884,58.728774 46.6978984,63.1615285 52.138442,63.1615285 C57.5789856,63.1615285 62,58.7399415 62,53.2993979 C62,47.8588542 57.5672455,43.437983 52.1267019,43.437983 C48.9540059,43.437983 46.1252096,44.9495951 44.315513,47.2861654 Z" id="Page-1-Copy"></path>
        </g>
    </g>
</svg>