<?xml version="1.0" encoding="UTF-8" standalone="no"?>
<svg width="30px" height="21px" viewBox="0 0 30 21" version="1.1" xmlns="http://www.w3.org/2000/svg" xmlns:xlink="http://www.w3.org/1999/xlink">
    <!-- Generator: Sketch 3.8.2 (29753) - http://www.bohemiancoding.com/sketch -->
    <title>72 - hdpi</title>
    <desc>Created with Sketch.</desc>
    <defs></defs>
    <g id="Page-1" stroke="none" stroke-width="1" fill="none" fill-rule="evenodd">
        <g id="72---hdpi" fill="#FFFFFF">
            <path d="M24.6371072,9.68030558 L21.2138769,5.0655131 C20.7631242,4.45777712 19.84891,4 19.0904298,4 L6.60699804,4 C5.72142984,4 5,4.71297559 5,5.58816604 L5,16.0939965 C5,16.9689844 5.72142984,17.6821626 6.60699804,17.6821626 L19.0904298,17.6821626 C19.8529071,17.6821626 20.7671213,17.2243855 21.2138769,16.6166495 L24.6371072,12.001857 C25.1209643,11.3535546 25.1209643,10.3325582 24.6371072,9.68030558 L24.6371072,9.68030558 Z M23.7435447,11.3616578 L20.3203145,15.9764503 C20.0824855,16.3005255 19.4921922,16.59234 19.0862277,16.59234 L6.60699804,16.59234 C6.33237505,16.59234 6.10699868,16.3693516 6.10699868,16.0979468 L6.10699868,5.58816604 C6.10699868,5.31676128 6.33237505,5.09402604 6.60699804,5.09402604 L19.0904298,5.09402604 C19.4961893,5.09402604 20.0824855,5.38974024 20.3243116,5.70986516 L23.7475418,10.3244551 C23.9443234,10.5958598 23.9443234,11.090253 23.7435447,11.3616578 L23.7435447,11.3616578 Z" id="tag"></path>
        </g>
    </g>
</svg>